[
    {
        "id": "5pi4opinnpbqpdda9sdic7xx9c",
        "create_at": 1600124021721,
        "update_at": 1600124021721,
        "edit_at": 0,
        "delete_at": 0,
        "is_pinned": false,
        "user_id": "h7jayrc1ffbe7fpnbujdcp4s7c",
        "channel_id": "jtjxcrwgnbd47p4bdbk91t8m4a",
        "root_id": "",
        "parent_id": "",
        "original_id": "",
        "message": "Automatic detection of volcanic surface deformation using deep learning\nJian Sun, Christelle Wauthier, Kirsten Stephens, Melissa Gerva, Guido Cervone, Peter La Femina, Machel Higgins [Sun2020]\nhttps://doi.org/10.1029/2020JB019840\nkeypoints\n    Novel application of CNN is capable of revealing both spatial and temporal dynamics of volcanic surface deformation.\n    CNN automatically mitigates atmospheric noise and facilitates the detection of volcanic unrest.\n    Results of the application of CNN to Masaya volcano in Nicaragua, are consistent with continuous GPS data.",
        "type": "",
        "props": {},
        "hashtags": "",
        "pending_post_id": "",
        "metadata": {}
    },
    {
        "id": "817tc8cqzt8z7pqwcz19bzf65a",
        "create_at": 1597176560742,
        "update_at": 1597176560742,
        "edit_at": 0,
        "delete_at": 0,
        "is_pinned": false,
        "user_id": "h7jayrc1ffbe7fpnbujdcp4s7c",
        "channel_id": "jtjxcrwgnbd47p4bdbk91t8m4a",
        "root_id": "",
        "parent_id": "",
        "original_id": "",
        "message": "johann updated the channel display name from: testapi to: paperclub",
        "type": "system_displayname_change",
        "props": {
            "new_displayname": "paperclub",
            "old_displayname": "testapi",
            "username": "johann"
        },
        "hashtags": "",
        "pending_post_id": "",
        "metadata": {}
    },
    {
        "id": "cbkyh1uyafbkbq13p1e3xcauke",
        "create_at": 1600123941470,
        "update_at": 1600123941470,
        "edit_at": 0,
        "delete_at": 0,
        "is_pinned": false,
        "user_id": "h7jayrc1ffbe7fpnbujdcp4s7c",
        "channel_id": "jtjxcrwgnbd47p4bdbk91t8m4a",
        "root_id": "dk193aaty7nk3q9tq979iyn47e",
        "parent_id": "dk193aaty7nk3q9tq979iyn47e",
        "original_id": "",
        "message": "Keywords: Operational probabilistic hazard maps, B\u00e1r\u00f0arbunga, Holuhraun, CALPUFF,\n    Volcanic SO2 ",
        "type": "",
        "props": {},
        "hashtags": "",
        "pending_post_id": "",
        "metadata": {}
    },
    {
        "id": "ccspw4i31py9idpikdrjw5ymfh",
        "create_at": 1599649567335,
        "update_at": 1599649567335,
        "edit_at": 0,
        "delete_at": 0,
        "is_pinned": false,
        "user_id": "h7jayrc1ffbe7fpnbujdcp4s7c",
        "channel_id": "jtjxcrwgnbd47p4bdbk91t8m4a",
        "root_id": "",
        "parent_id": "",
        "original_id": "",
        "message": "johann updated the channel display name from: paperclub to: so2 paperclub SO2",
        "type": "system_displayname_change",
        "props": {
            "new_displayname": "so2 paperclub SO2",
            "old_displayname": "paperclub",
            "username": "johann"
        },
        "hashtags": "",
        "pending_post_id": "",
        "metadata": {}
    },
    {
        "id": "dk193aaty7nk3q9tq979iyn47e",
        "create_at": 1600123786410,
        "update_at": 1600123941470,
        "edit_at": 0,
        "delete_at": 0,
        "is_pinned": false,
        "user_id": "h7jayrc1ffbe7fpnbujdcp4s7c",
        "channel_id": "jtjxcrwgnbd47p4bdbk91t8m4a",
        "root_id": "",
        "parent_id": "",
        "original_id": "",
        "message": "Probabilistic hazard maps for operational use: the case of SO2 air pollution during the Holuhraun eruption (B\u00e1r\u00f0arbunga, Iceland) in 2014\u20132015.\nBarsotti, S., Bull Volcanol 82, 56 (2020) [Barsotti2020]\nhttps://doi.org/10.1007/s00445-020-01395-3",
        "type": "",
        "props": {},
        "hashtags": "",
        "pending_post_id": "",
        "metadata": {}
    },
    {
        "id": "dxokussiypb1ujf7985jjfra9h",
        "create_at": 1597054098461,
        "update_at": 1597054098461,
        "edit_at": 0,
        "delete_at": 0,
        "is_pinned": false,
        "user_id": "h7jayrc1ffbe7fpnbujdcp4s7c",
        "channel_id": "jtjxcrwgnbd47p4bdbk91t8m4a",
        "root_id": "",
        "parent_id": "",
        "original_id": "",
        "message": "johann joined the channel.",
        "type": "system_join_channel",
        "props": {
            "username": "johann"
        },
        "hashtags": "",
        "pending_post_id": "",
        "metadata": {}
    },
    {
        "id": "hgqnc69za7gnzcdzk17c86piah",
        "create_at": 1600124007945,
        "update_at": 1600124007945,
        "edit_at": 0,
        "delete_at": 0,
        "is_pinned": false,
        "user_id": "h7jayrc1ffbe7fpnbujdcp4s7c",
        "channel_id": "jtjxcrwgnbd47p4bdbk91t8m4a",
        "root_id": "",
        "parent_id": "",
        "original_id": "",
        "message": "Mantle and crustal sources of magmatic activity of Klyuchevskoy and surrounding volcanoes in Kamchatka inferred from earthquake tomography\nIvan Koulakov, Nikolay M. Shapiro, Christoph Sens\u2010Sch\u00f6nfelder, Birger G. Luehr, Evgeny I. Gordeev, Andrey Jakovlev, Ilyas Abkadyrov, Danila V. Chebrov, Natalia Bushenkova, Svetlana Ya. Droznina, Sergey L. Senyukov, Angelika Novgorodova, Tatyana Stupina [Koulakov2020]\n https://doi.org/10.1029/2020JB020097\nKey points\n    We present a new high\u2010resolution seismic model of the crust and upper mantle beneath the Northern Group of Volcanoes in Kamchatka\n    The volcanoes of the Northern group are fed by an asthenosphere flow ascending from a slab window below the Kamchatka\u2010Aleutian junction\n    Eastern branch of the Central Kamchatkan Depression is a rift separating the Northern Group of Volcanoes from the Eastern Ranges",
        "type": "",
        "props": {},
        "hashtags": "",
        "pending_post_id": "",
        "metadata": {}
    },
    {
        "id": "tbnjoqhgqtfszkoemx9n7t8jkh",
        "create_at": 1600123840540,
        "update_at": 1600123840540,
        "edit_at": 0,
        "delete_at": 0,
        "is_pinned": false,
        "user_id": "h7jayrc1ffbe7fpnbujdcp4s7c",
        "channel_id": "jtjxcrwgnbd47p4bdbk91t8m4a",
        "root_id": "dk193aaty7nk3q9tq979iyn47e",
        "parent_id": "dk193aaty7nk3q9tq979iyn47e",
        "original_id": "",
        "message": "Summary: The Holuhraun fissure eruption (Iceland) in 2014\u20132015, which originated from the B\u00e1r\u00f0arbunga volcanic system, was exceptional in several respects. ",
        "type": "",
        "props": {},
        "hashtags": "",
        "pending_post_id": "",
        "metadata": {}
    },
    {
        "id": "uqchrjw5zj847n8otnn7yjc5xy",
        "create_at": 1599649589676,
        "update_at": 1599649589676,
        "edit_at": 0,
        "delete_at": 0,
        "is_pinned": false,
        "user_id": "h7jayrc1ffbe7fpnbujdcp4s7c",
        "channel_id": "jtjxcrwgnbd47p4bdbk91t8m4a",
        "root_id": "",
        "parent_id": "",
        "original_id": "",
        "message": "johann updated the channel display name from: so2 paperclub SO2 to: Paperclub SO2",
        "type": "system_displayname_change",
        "props": {
            "new_displayname": "Paperclub SO2",
            "old_displayname": "so2 paperclub SO2",
            "username": "johann"
        },
        "hashtags": "",
        "pending_post_id": "",
        "metadata": {}
    }
]